us,Total Diagram Object,Connect Diagram Object,UnConnect Diagram Object
"As Metadata Architect, I want to be able to use batch tools to ingest, update, and export descriptive and administrative metadata in lieu of METS ingest.",14,14,0
"As a metadata editor, I would like to be able to add and edit metadata without assistance.",6,6,0
"As Metadata Architect, I want metadata export to contain both item- and component-level metadata.",4,4,0
"As repository developer, I want to find opportunities to merge functionality in batch tools.",6,6,0
"As a metadata batch editor, I'd like to be able to export and import descriptive and administrative metadata for multiple collections together.",10,10,0
"As a data depositor, I'd like to use the Simple Ingest Format to update existing items and components creating new versions where they already exist and creating new ones where the don't.",13,13,0
"As a metadata batch editor, I'd like to be able to mark any search results as an export set for metadata remediation.",6,6,0
"As a metadata batch editor, I want to export the CSV, remove the fields I'm not editing, edit the remaining fields, and upload the remediated file to overwrite values",nb_do_tot,nb_do_connect,nb_do_unconnect
"As a data depositor, I'd like to use the Simple Ingest Format to add items to an existing collection.",7,7,0
"As a collection curator, I want to deposit items into the repository from within ArchivesSpace and to view the status of those objects in ArchivesSpace.",9,9,0
"As a collection curator, I want to be able to set a date after which data will expire and be deleted or hidden then deleted. I would like the scheduled records deletion date to be displayed on the item and and component pages.",9,9,0
"As a repository manager, I'd like a way to track who is financially responsible for each item in the repository. That should probably be a person contact including name, phone, email, maybe title and address. I should be able to run a report periodically showing the storage consumed by each financial contact.",5,3,2
"As a collection manager, I would like to map an item or items from one collection to another so that an item may administratively belong to one collection but could appear in other collections.",7,7,0
"As a user (University Archivist or Secretary Office Staff member), I want to be able to add a date delimiter to a search string so that I can limit a search to return only results from before, after, or between a given date or dates.",5,5,0
"As a developer, determine if we can use the in-built Fedora 4 event audit services.",2,0,2
"As a repository manager, I want to specify the remote replication policy for each collection. I want to be able to elect to either replicate remotely or not and possibly to replicate beyond the primary remote site. E.g., some collections may not leave Duke, some may be replicated to DuraCloud, and some may be replicated to both DuraCloud and Glacier.",5,5,0
"As a collection curator, I want the repository to queue my collection for replication upon ingest to our remote storage site and to display the remote replication status in each item and component page in the staff interface. I would also like to see a summary of this at the collection level on my dashboard.",15,12,3
"As a collection curator housed in the Protected Data Network, I want my collection to be encrypted with a key maintained on that server, a checksum made and stored of the encrypted file, and the encrypted file replicated to our remote storage site.",8,6,2
"As a collection curator, when I update the metadata for an object, that change should be propagated to the DOI system if the repository has assigned a DOI to that object.",9,8,1
"As a repository administrator, I want author/creator to store the DUID of the person to allow for name authority control and interoperability with other systems like Symplectic Elements.",15,15,0
"As a collection curator, I would like a simple way to lift an embargo for an object.",5,5,0
"As a repository administrator, I want Symplectic Elements to integrate with DDR. They provide a Fedora Connector and Emory is using a hidden Fedora instance that Hydra collects objects for. Note that there is bidirectional communication with Elements.",4,4,0
"As a collection curator, I want items to be made available under the permissions they were configured once the embargo date has been reached.",4,4,0
"As a collection curator for collections that allow web deposit, I would like to be able to create deposit forms specific to the collection.",7,7,0
"As a collection curator, I want to allow some collections the option of setting an embargo date (e.g. 2017-01-01)at deposit. Item metadata should be discoverable until that date. Once the embargo date is reached, the embargo should be lifted and access to the item should be allowed under the access permissions set on the object.",9,9,0
"As a repository administrator, I want users to be presented with a license or a selection of licenses, specific to the collection, and deposit to be denied if the submitter does not accept the license. The license should be recorded in metadata and displayed alongside the item.",13,13,0
"As the Digital Records Archivist, I need a method to batch ingest ETDs we receive from ProQuest. A script might work, but a GUI would be nice.",5,4,1
"As the Digital Records Archivist, I need the batch ingest tool to recognize and set embargoes. Permissions for embargoed items should be allow everyone to view metadata and collection curator and repository administrators to be able to download the files.",5,5,0
"As the Digital Records Archivist, I want the repository to lift embargoes on the release date and set the access controls to the configuration set on item on that date.",10,10,0
"As a visitor, I want to see the embargo status and release date clearly displayed and perhaps highlighted in some way.",11,11,0
"As the Digital Records Archivist, I want a method to add and remove multiple people to deposit groups in specific collections. Ideally, I'd be able to set a date that the deposit window closes. The permissions conferred on these depositors should pick up on the collection's default permission.",9,8,1
"As the Digital Records Archivist, I want to be able to edit the length of embargoes.",5,5,0
"As the Digital Records Archivist, I want to be able to remove and instate embargoes.",5,5,0
"As the Digital Records Archivist, I want to expose the descriptive record for each ETD item for re-use external to Fedora.",7,7,0
"As the Digital Records Archivist, I want to be able to grant embargo privileges to other repository administrators.",5,5,0
"As the Digital Records Archivist, I want a method to add and remove individual people from deposit groups.",6,6,0
"As a collection curator, I want to a tool to perform author authority control.",4,4,0
"As a collection curator, I want to be able to move items from one collection to another.",5,5,0
"As a repository administrator, I want to be able to expose repository contents via OAI-PMH.",5,5,0
"as the Digital Records archivist, I want to view and download summary embargo metadata for all ETDs in the repository",7,7,0
"As a batch submitter, I'd like to be able to provide my data and metadata in a simple, documented format to the repository staff for ingest.",10,10,0
"As repository manager, I'd like to be able to view authenticated, active users and anonymous users.",6,6,0
"As a repository manager, I want to be able to schedule a message to users to be displayed on each page on the repository between select times for things like notification of upcoming downtime.",11,11,0
"As a repository manager, I would like to see a display of recent errors deduplicated for easy comprehension like Symplectic Elements provides.",6,6,0
"As a repository manager, I'd like to be able to view a dashboard statistics about collections size including a list of collections, the number of items and components in each, total storage consumed by each collection, visualization of deposit activity (e.g. sparkline).",12,10,2
"As a collection curator, I'd like to see a dashboard widget showing a summary of recent submissions to my collection.",7,7,0
"As a repository administrator, I would like to be able to continue to provide access to the repository in the event that the server fails.",8,8,0
"As a repository administrator, I would like to be able to provide the server SLA to data contributors.",7,7,0
"As a repository administrator, I want to be able to update the repository index without disrupting access to the public interface. (See dul-hydra wiki)",6,6,0
"As a repository administrator, I want to provide a Linked Data interface to the repository.",5,5,0
"As a repository administrator, I would like Symplectic Elements to be able to communicate bidirectionally with the repository.",7,6,1
"As a repository developer, I would like to upgrade to Fedora 4 and migrate our applications and data.",10,10,0
"As a collection curator, I would like metadata changes made to items with repository-assigned DOIs to be propagated to the EZID.",4,0,4
"As a collection curator, I want to be able to canonically identify authors and creators of my items by unique identifier (DUID, NetID, etc) to make it easier to view all of the works by that person together.",23,23,0
"As a collection curator, I want to see the referers for visitors who use resolver-abstracted links to reach my items.",8,8,0
"As data contributor, I want to be able to refer to the Disaster Recovery Plan in grant proposals and Data Management Plans.",9,9,0
"As a depositor, I'd like feedback post-ingest (after save if content changed) alerting me if files I submitted do not conform to their format specifications, if they are not valid, or if they are not well-formed. Notification should also go to the repository manager, possibly via an email list.",nb_do_tot,nb_do_connect,nb_do_unconnect
"As a batch submitter, I want documentation describing the folder ingest process.",5,5,0
"As a depositor, I'd like language I can easily add to grant proposals describing the preservation infrastructure, presrvation policy, and institutional commitment",12,11,1
"As a potential depositor, I want to see what kinds of things the repository accepts and what formats are accepted and recommended.",6,6,0
"As a depositor, I'd like to be able to easily find information about which data can be assigned a DOI, how to get one, and what metadata are required.",9,9,0
"As a collection curator, I would like an easy way to create groups of users to manage permissions in the repository.",8,8,0
"As a collection curator, I want to restrict access to my collection or items to Duke IP addresses.",11,11,0
"As a collection curator, I want users to be able to contact me directly from the repository to request access to restricted objects.",7,6,1
"As a collection owner, I would like submitters to my collection to be unable to modify existing items in that collection.",7,6,1
"As a superuser, I should be able to enter and exit the superuser scope.",5,5,0
As a collection curator I want to be able to change permissions on one or more items simultaneously.,7,7,0
"As a collection curator, I want to be able require authentication to access objects unless the request is coming from a whitelisted IP address, list of addresses (like the Special Collections Reading Room, or range.",13,10,3
"As a repository administrator, I want to view available versions of an object and be able to restore a version from the staff interface.",9,9,0
"As a collection curator, I would like to be able to view the permission on my objects all together.",5,5,0
"As a non-Duke researcher, I and my team need to describe our objects in the repository after they've been deposited if we've been assigned permission to edit metadata.",5,5,0
"As a faculty member, I want to go to my repository dashboard to manage members of my classes. I want to be able to grant submit permissions by pasting in a list of NetIDs, see confirmation that DDR recognizes the NetIDs, ability to manually remove permissions, ability to set begin and end dates for a submission window, and a have a status screen to clearly illustrate who has and hasn't submitted.",7,7,0
"As a collection curator, I want to associate targets with specific repository object.",5,5,0
"As a data submitter, I would like to be able to order components within an item.",5,5,0
"As a collection curator, I'd like to be able to view the technical metadata for each component on the component page. I would not expect to see technical metadata at the item or collection level.",6,6,0
"As a repository manager, I'd like to be able to export a spreadsheet of technical metadata at the repository, collection, or item level.",12,12,0
"As a depositor, I want a web submission form that allows me to upload my file or files to the repository and describe those files in metadata fields specific to the collection to which I'm depositing.",14,12,2
"As a collection curator, I want to be able to select any existing descriptive metadata element to be optional or required for that collection.",10,10,0
"As a repository manager, I'd like to be able to choose from among existing submission templates when creating a new collection.",5,5,0
"As a developer, I want a dummy app to test DDR models on Fedora 4.",5,5,0
"As a developer, I want a version of the DDR models gem that uses Active Fedora 9 and passes all tests on Fedora 4.",12,12,0
"As a developer, I want a version of the DDR Batch gem that works with Active Fedora 9 and passes all tests on Fedora 4.",12,12,0
"As a developer, I want a version of DUL Hydra that works with Active Fedora 9 and passes all tests.",7,6,1
